…
    ##   country = col_character(),
    ##   year = col_double(),
    ##   sex = col_character(),
    ##   age = col_character(),
    ##   suicides_no = col_double(),
    ##   population = col_double(),
    ##   `suicides/100k pop` = col_double(),
    ##   `country-year` = col_character(),
    ##   `HDI for year` = col_double(),
    ##   `gdp_for_year ($)` = col_number(),
    ##   `gdp_per_capita ($)` = col_double(),
    ##   generation = col_character()
    ## )

    ## # A tibble: 98 x 10
    ##    country  year sex   age   suicides_no population `suicides/100k ~
    ##    <chr>   <dbl> <chr> <chr>       <dbl>      <dbl>            <dbl>
    ##  1 Belize   2006 male  5-14~           1      37049             2.7 
    ##  2 Belize   2007 fema~ 35-5~           1      28664             3.49
    ##  3 Belize   2008 male  35-5~           6      30511            19.7 
    ##  4 Belize   2008 male  55-7~           0       9580             0   
    ##  5 Belize   2009 fema~ 75+ ~           0       2251             0   
    ##  6 Belize   2010 fema~ 5-14~           0      38304             0   
    ##  7 Belize   2011 male  55-7~           1      11928             8.38
    ##  8 Belize   2012 fema~ 15-2~           2      34680             5.77
    ##  9 Belize   2013 male  25-3~           4      26847            14.9 
    ## 10 Belize   2013 male  75+ ~           0       2335             0   
    ## # ... with 88 more rows, and 3 more variables: `country-year` <chr>,
    ## #   `gdp_per_capita ($)` <dbl>, generation <chr>
…
Covariation between Multiple Variables
--------------------------------------

``` r
suicide 
```

    ## # A tibble: 98 x 10
    ##    country  year sex   age   suicides_no population `suicides/100k ~
    ##    <chr>   <dbl> <chr> <chr>       <dbl>      <dbl>            <dbl>
    ##  1 Belize   2006 male  5-14~           1      37049             2.7 
    ##  2 Belize   2007 fema~ 35-5~           1      28664             3.49
    ##  3 Belize   2008 male  35-5~           6      30511            19.7 
    ##  4 Belize   2008 male  55-7~           0       9580             0   
    ##  5 Belize   2009 fema~ 75+ ~           0       2251             0   
    ##  6 Belize   2010 fema~ 5-14~           0      38304             0   
    ##  7 Belize   2011 male  55-7~           1      11928             8.38
    ##  8 Belize   2012 fema~ 15-2~           2      34680             5.77
    ##  9 Belize   2013 male  25-3~           4      26847            14.9 
    ## 10 Belize   2013 male  75+ ~           0       2335             0   
    ## # ... with 88 more rows, and 3 more variables: `country-year` <chr>,
    ## #   `gdp_per_capita ($)` <dbl>, generation <chr>
…
